(kicad_pcb (version 3) (host pcbnew "(2013-mar-30)-stable")

  (general
    (links 17)
    (no_connects 10)
    (area 76.848499 46.452086 91.633322 63.0682)
    (thickness 1.6)
    (drawings 5)
    (tracks 19)
    (zones 0)
    (modules 11)
    (nets 9)
  )

  (page A3)
  (layers
    (15 F.Cu signal)
    (0 B.Cu signal)
    (16 B.Adhes user)
    (17 F.Adhes user)
    (18 B.Paste user)
    (19 F.Paste user)
    (20 B.SilkS user)
    (21 F.SilkS user)
    (22 B.Mask user)
    (23 F.Mask user)
    (24 Dwgs.User user)
    (25 Cmts.User user)
    (26 Eco1.User user)
    (27 Eco2.User user)
    (28 Edge.Cuts user)
  )

  (setup
    (last_trace_width 0.254)
    (trace_clearance 0.254)
    (zone_clearance 0.508)
    (zone_45_only no)
    (trace_min 0.254)
    (segment_width 0.2)
    (edge_width 0.1)
    (via_size 0.889)
    (via_drill 0.635)
    (via_min_size 0.889)
    (via_min_drill 0.508)
    (uvia_size 0.508)
    (uvia_drill 0.127)
    (uvias_allowed no)
    (uvia_min_size 0.508)
    (uvia_min_drill 0.127)
    (pcb_text_width 0.3)
    (pcb_text_size 1.5 1.5)
    (mod_edge_width 0.15)
    (mod_text_size 1 1)
    (mod_text_width 0.15)
    (pad_size 1.5 1.5)
    (pad_drill 0.6)
    (pad_to_mask_clearance 0)
    (aux_axis_origin 0 0)
    (visible_elements 7FFFFFFF)
    (pcbplotparams
      (layerselection 3178497)
      (usegerberextensions true)
      (excludeedgelayer true)
      (linewidth 152400)
      (plotframeref false)
      (viasonmask false)
      (mode 1)
      (useauxorigin false)
      (hpglpennumber 1)
      (hpglpenspeed 20)
      (hpglpendiameter 15)
      (hpglpenoverlay 2)
      (psnegative false)
      (psa4output false)
      (plotreference true)
      (plotvalue true)
      (plotothertext true)
      (plotinvisibletext false)
      (padsonsilk false)
      (subtractmaskfromsilk false)
      (outputformat 1)
      (mirror false)
      (drillshape 1)
      (scaleselection 1)
      (outputdirectory ""))
  )

  (net 0 "")
  (net 1 GND)
  (net 2 N-0000010)
  (net 3 N-000003)
  (net 4 N-000004)
  (net 5 N-000006)
  (net 6 N-000008)
  (net 7 N-000009)
  (net 8 VCC)

  (net_class Default "This is the default net class."
    (clearance 0.254)
    (trace_width 0.254)
    (via_dia 0.889)
    (via_drill 0.635)
    (uvia_dia 0.508)
    (uvia_drill 0.127)
    (add_net "")
    (add_net N-0000010)
    (add_net N-000003)
    (add_net N-000006)
    (add_net N-000008)
    (add_net N-000009)
  )

  (net_class ALIM ""
    (clearance 0.254)
    (trace_width 0.6)
    (via_dia 0.889)
    (via_drill 0.635)
    (uvia_dia 0.508)
    (uvia_drill 0.127)
    (add_net GND)
    (add_net N-000004)
    (add_net VCC)
  )

  (module SOT323 (layer B.Cu) (tedit 450AC34A) (tstamp 529B0E4E)
    (at 111.5695 49.9237)
    (tags "SMD SOT")
    (path /529B0FC1)
    (attr smd)
    (fp_text reference Q2 (at 0.127 2.032) (layer B.SilkS)
      (effects (font (size 0.762 0.762) (thickness 0.09906)) (justify mirror))
    )
    (fp_text value NPN (at 0 0) (layer B.SilkS) hide
      (effects (font (size 0.70104 0.70104) (thickness 0.09906)) (justify mirror))
    )
    (fp_line (start 0.254 -0.508) (end 0.889 -0.508) (layer B.SilkS) (width 0.127))
    (fp_line (start 0.889 -0.508) (end 0.889 0.508) (layer B.SilkS) (width 0.127))
    (fp_line (start -0.889 0.508) (end -0.889 -0.508) (layer B.SilkS) (width 0.127))
    (fp_line (start -0.889 -0.508) (end -0.254 -0.508) (layer B.SilkS) (width 0.127))
    (fp_line (start 0.254 -0.635) (end 0.254 -0.508) (layer B.SilkS) (width 0.127))
    (fp_line (start -0.254 -0.508) (end -0.254 -0.635) (layer B.SilkS) (width 0.127))
    (fp_line (start 0.889 0.508) (end -0.889 0.508) (layer B.SilkS) (width 0.127))
    (fp_line (start -0.254 -0.635) (end 0.254 -0.635) (layer B.SilkS) (width 0.127))
    (pad 2 smd rect (at -0.65024 0.94996) (size 0.59944 1.00076)
      (layers B.Cu B.Paste B.Mask)
      (net 7 N-000009)
    )
    (pad 1 smd rect (at 0.65024 0.94996) (size 0.59944 1.00076)
      (layers B.Cu B.Paste B.Mask)
      (net 3 N-000003)
    )
    (pad 3 smd rect (at 0 -0.94996) (size 0.59944 1.00076)
      (layers B.Cu B.Paste B.Mask)
      (net 1 GND)
    )
    (model smd/SOT323.wrl
      (at (xyz 0 0 0.001))
      (scale (xyz 0.3937 0.3937 0.3937))
      (rotate (xyz 0 0 0))
    )
  )

  (module SOT323 (layer B.Cu) (tedit 450AC34A) (tstamp 529B0E5D)
    (at 112.0648 53.4924 180)
    (tags "SMD SOT")
    (path /529B0FCE)
    (attr smd)
    (fp_text reference Q1 (at 0.127 2.032 180) (layer B.SilkS)
      (effects (font (size 0.762 0.762) (thickness 0.09906)) (justify mirror))
    )
    (fp_text value NPN (at 0 0 180) (layer B.SilkS) hide
      (effects (font (size 0.70104 0.70104) (thickness 0.09906)) (justify mirror))
    )
    (fp_line (start 0.254 -0.508) (end 0.889 -0.508) (layer B.SilkS) (width 0.127))
    (fp_line (start 0.889 -0.508) (end 0.889 0.508) (layer B.SilkS) (width 0.127))
    (fp_line (start -0.889 0.508) (end -0.889 -0.508) (layer B.SilkS) (width 0.127))
    (fp_line (start -0.889 -0.508) (end -0.254 -0.508) (layer B.SilkS) (width 0.127))
    (fp_line (start 0.254 -0.635) (end 0.254 -0.508) (layer B.SilkS) (width 0.127))
    (fp_line (start -0.254 -0.508) (end -0.254 -0.635) (layer B.SilkS) (width 0.127))
    (fp_line (start 0.889 0.508) (end -0.889 0.508) (layer B.SilkS) (width 0.127))
    (fp_line (start -0.254 -0.635) (end 0.254 -0.635) (layer B.SilkS) (width 0.127))
    (pad 2 smd rect (at -0.65024 0.94996 180) (size 0.59944 1.00076)
      (layers B.Cu B.Paste B.Mask)
    )
    (pad 1 smd rect (at 0.65024 0.94996 180) (size 0.59944 1.00076)
      (layers B.Cu B.Paste B.Mask)
      (net 3 N-000003)
    )
    (pad 3 smd rect (at 0 -0.94996 180) (size 0.59944 1.00076)
      (layers B.Cu B.Paste B.Mask)
      (net 7 N-000009)
    )
    (model smd/SOT323.wrl
      (at (xyz 0 0 0.001))
      (scale (xyz 0.3937 0.3937 0.3937))
      (rotate (xyz 0 0 0))
    )
  )

  (module sot143r (layer B.Cu) (tedit 50BDE92B) (tstamp 529B0E6F)
    (at 114.5286 62.3316 270)
    (descr SOT143R)
    (path /529B12A7)
    (attr smd)
    (fp_text reference IC1 (at 0 0 270) (layer B.SilkS)
      (effects (font (size 0.50038 0.50038) (thickness 0.09906)) (justify mirror))
    )
    (fp_text value MAX2611 (at 0 0 270) (layer B.SilkS) hide
      (effects (font (size 0.50038 0.50038) (thickness 0.09906)) (justify mirror))
    )
    (fp_line (start 0.3556 -1.3589) (end 1.143 -1.3589) (layer B.SilkS) (width 0.127))
    (fp_line (start -0.9525 -0.6985) (end -0.9525 -1.3589) (layer B.SilkS) (width 0.127))
    (fp_line (start -0.9525 0.6985) (end -0.9525 1.3589) (layer B.SilkS) (width 0.127))
    (fp_line (start 1.143 -0.6985) (end 1.143 -1.3589) (layer B.SilkS) (width 0.127))
    (fp_line (start 0.3556 -0.6985) (end 0.3556 -1.3589) (layer B.SilkS) (width 0.127))
    (fp_line (start 0.9525 0.6985) (end 0.9525 1.3589) (layer B.SilkS) (width 0.127))
    (fp_line (start -1.4986 0.6985) (end 1.4986 0.6985) (layer B.SilkS) (width 0.127))
    (fp_line (start 1.4986 0.6985) (end 1.4986 -0.6985) (layer B.SilkS) (width 0.127))
    (fp_line (start 1.4986 -0.6985) (end -1.4986 -0.6985) (layer B.SilkS) (width 0.127))
    (fp_line (start -1.4986 -0.6985) (end -1.4986 0.6985) (layer B.SilkS) (width 0.127))
    (pad 2 smd rect (at -0.9525 -1.05664 270) (size 0.59944 1.00076)
      (layers B.Cu B.Paste B.Mask)
      (net 1 GND)
    )
    (pad 4 smd rect (at 0.9525 1.05664 270) (size 0.59944 1.00076)
      (layers B.Cu B.Paste B.Mask)
      (net 1 GND)
    )
    (pad 1 smd rect (at 0.75184 -1.05664 270) (size 1.00076 1.00076)
      (layers B.Cu B.Paste B.Mask)
      (net 6 N-000008)
    )
    (pad 3 smd rect (at -0.9525 1.05664 270) (size 0.59944 1.00076)
      (layers B.Cu B.Paste B.Mask)
      (net 5 N-000006)
    )
    (model smd/smd_transistors/sot143r.wrl
      (at (xyz 0 0 0))
      (scale (xyz 1 1 1))
      (rotate (xyz 0 0 0))
    )
  )

  (module PIN_ARRAY_2X1-Davoust (layer F.Cu) (tedit 5299F073) (tstamp 529B0E93)
    (at 140.8176 66.548)
    (descr "Connecteurs 2 pins")
    (tags "CONN DEV")
    (path /5299E990)
    (fp_text reference P2 (at 0 -1.905) (layer F.SilkS)
      (effects (font (size 0.762 0.762) (thickness 0.1524)))
    )
    (fp_text value Ant (at 0 -1.905) (layer F.SilkS) hide
      (effects (font (size 0.762 0.762) (thickness 0.1524)))
    )
    (fp_line (start -2.54 1.27) (end -2.54 -1.27) (layer F.SilkS) (width 0.1524))
    (fp_line (start -2.54 -1.27) (end 2.54 -1.27) (layer F.SilkS) (width 0.1524))
    (fp_line (start 2.54 -1.27) (end 2.54 1.27) (layer F.SilkS) (width 0.1524))
    (fp_line (start 2.54 1.27) (end -2.54 1.27) (layer F.SilkS) (width 0.1524))
    (pad 1 thru_hole rect (at -1.27 0) (size 2 2) (drill 1.016)
      (layers *.Cu *.Mask F.SilkS)
      (net 2 N-0000010)
    )
    (pad 2 thru_hole circle (at 1.27 0) (size 2 2) (drill 1.016)
      (layers *.Cu *.Mask F.SilkS)
      (net 1 GND)
    )
    (model pin_array/pins_array_2x1.wrl
      (at (xyz 0 0 0))
      (scale (xyz 1 1 1))
      (rotate (xyz 0 0 0))
    )
  )

  (module PIN_ARRAY_2X1-Davoust (layer F.Cu) (tedit 5299F073) (tstamp 529B0E9D)
    (at 111.5314 45.6438 270)
    (descr "Connecteurs 2 pins")
    (tags "CONN DEV")
    (path /5299E99D)
    (fp_text reference P1 (at 0 -1.905 270) (layer F.SilkS)
      (effects (font (size 0.762 0.762) (thickness 0.1524)))
    )
    (fp_text value Alim (at 0 -1.905 270) (layer F.SilkS) hide
      (effects (font (size 0.762 0.762) (thickness 0.1524)))
    )
    (fp_line (start -2.54 1.27) (end -2.54 -1.27) (layer F.SilkS) (width 0.1524))
    (fp_line (start -2.54 -1.27) (end 2.54 -1.27) (layer F.SilkS) (width 0.1524))
    (fp_line (start 2.54 -1.27) (end 2.54 1.27) (layer F.SilkS) (width 0.1524))
    (fp_line (start 2.54 1.27) (end -2.54 1.27) (layer F.SilkS) (width 0.1524))
    (pad 1 thru_hole rect (at -1.27 0 270) (size 2 2) (drill 1.016)
      (layers *.Cu *.Mask F.SilkS)
      (net 4 N-000004)
    )
    (pad 2 thru_hole circle (at 1.27 0 270) (size 2 2) (drill 1.016)
      (layers *.Cu *.Mask F.SilkS)
      (net 1 GND)
    )
    (model pin_array/pins_array_2x1.wrl
      (at (xyz 0 0 0))
      (scale (xyz 1 1 1))
      (rotate (xyz 0 0 0))
    )
  )

  (module PIN_ARRAY_2X1-Davoust (layer F.Cu) (tedit 5299F073) (tstamp 529B14A6)
    (at 115.4176 44.3484 180)
    (descr "Connecteurs 2 pins")
    (tags "CONN DEV")
    (path /5299E9F7)
    (fp_text reference SW1 (at 0 -1.905 180) (layer F.SilkS)
      (effects (font (size 0.762 0.762) (thickness 0.1524)))
    )
    (fp_text value SWITCH_INV (at 0 -1.905 180) (layer F.SilkS) hide
      (effects (font (size 0.762 0.762) (thickness 0.1524)))
    )
    (fp_line (start -2.54 1.27) (end -2.54 -1.27) (layer F.SilkS) (width 0.1524))
    (fp_line (start -2.54 -1.27) (end 2.54 -1.27) (layer F.SilkS) (width 0.1524))
    (fp_line (start 2.54 -1.27) (end 2.54 1.27) (layer F.SilkS) (width 0.1524))
    (fp_line (start 2.54 1.27) (end -2.54 1.27) (layer F.SilkS) (width 0.1524))
    (pad 1 thru_hole rect (at -1.27 0 180) (size 2 2) (drill 1.016)
      (layers *.Cu *.Mask F.SilkS)
      (net 8 VCC)
    )
    (pad 2 thru_hole circle (at 1.27 0 180) (size 2 2) (drill 1.016)
      (layers *.Cu *.Mask F.SilkS)
      (net 4 N-000004)
    )
    (model pin_array/pins_array_2x1.wrl
      (at (xyz 0 0 0))
      (scale (xyz 1 1 1))
      (rotate (xyz 0 0 0))
    )
  )

  (module C2-Davoust (layer F.Cu) (tedit 5299F0B5) (tstamp 529B0EB2)
    (at 111.3663 59.1312 90)
    (descr "Condensateur = 2 pas")
    (tags C)
    (path /5299BE60)
    (fp_text reference C2 (at 0 0 90) (layer F.SilkS)
      (effects (font (size 1.016 1.016) (thickness 0.2032)))
    )
    (fp_text value 0.1u (at 0 0 90) (layer F.SilkS) hide
      (effects (font (size 1.016 1.016) (thickness 0.2032)))
    )
    (fp_line (start -3.556 -1.016) (end 3.556 -1.016) (layer F.SilkS) (width 0.3048))
    (fp_line (start 3.556 -1.016) (end 3.556 1.016) (layer F.SilkS) (width 0.3048))
    (fp_line (start 3.556 1.016) (end -3.556 1.016) (layer F.SilkS) (width 0.3048))
    (fp_line (start -3.556 1.016) (end -3.556 -1.016) (layer F.SilkS) (width 0.3048))
    (fp_line (start -3.556 -0.508) (end -3.048 -1.016) (layer F.SilkS) (width 0.3048))
    (pad 1 thru_hole circle (at -2.54 0 90) (size 2 2) (drill 0.8128)
      (layers *.Cu *.Mask F.SilkS)
      (net 5 N-000006)
    )
    (pad 2 thru_hole circle (at 2.54 0 90) (size 2 2) (drill 0.8128)
      (layers *.Cu *.Mask F.SilkS)
      (net 7 N-000009)
    )
    (model discret/capa_2pas_5x5mm.wrl
      (at (xyz 0 0 0))
      (scale (xyz 1 1 1))
      (rotate (xyz 0 0 0))
    )
  )

  (module C2-Davoust (layer F.Cu) (tedit 5299F0B5) (tstamp 529B0EBD)
    (at 131.6482 74.0918)
    (descr "Condensateur = 2 pas")
    (tags C)
    (path /5299E911)
    (fp_text reference C3 (at 0 0) (layer F.SilkS)
      (effects (font (size 1.016 1.016) (thickness 0.2032)))
    )
    (fp_text value 4.7n (at 0 0) (layer F.SilkS) hide
      (effects (font (size 1.016 1.016) (thickness 0.2032)))
    )
    (fp_line (start -3.556 -1.016) (end 3.556 -1.016) (layer F.SilkS) (width 0.3048))
    (fp_line (start 3.556 -1.016) (end 3.556 1.016) (layer F.SilkS) (width 0.3048))
    (fp_line (start 3.556 1.016) (end -3.556 1.016) (layer F.SilkS) (width 0.3048))
    (fp_line (start -3.556 1.016) (end -3.556 -1.016) (layer F.SilkS) (width 0.3048))
    (fp_line (start -3.556 -0.508) (end -3.048 -1.016) (layer F.SilkS) (width 0.3048))
    (pad 1 thru_hole circle (at -2.54 0) (size 2 2) (drill 0.8128)
      (layers *.Cu *.Mask F.SilkS)
      (net 2 N-0000010)
    )
    (pad 2 thru_hole circle (at 2.54 0) (size 2 2) (drill 0.8128)
      (layers *.Cu *.Mask F.SilkS)
      (net 6 N-000008)
    )
    (model discret/capa_2pas_5x5mm.wrl
      (at (xyz 0 0 0))
      (scale (xyz 1 1 1))
      (rotate (xyz 0 0 0))
    )
  )

  (module C2-Davoust (layer F.Cu) (tedit 5299F0B5) (tstamp 529C377B)
    (at 114.427 49.4284 270)
    (descr "Condensateur = 2 pas")
    (tags C)
    (path /5299EB08)
    (fp_text reference C1 (at 0 0 270) (layer F.SilkS)
      (effects (font (size 1.016 1.016) (thickness 0.2032)))
    )
    (fp_text value 22n (at 0 0 270) (layer F.SilkS) hide
      (effects (font (size 1.016 1.016) (thickness 0.2032)))
    )
    (fp_line (start -3.556 -1.016) (end 3.556 -1.016) (layer F.SilkS) (width 0.3048))
    (fp_line (start 3.556 -1.016) (end 3.556 1.016) (layer F.SilkS) (width 0.3048))
    (fp_line (start 3.556 1.016) (end -3.556 1.016) (layer F.SilkS) (width 0.3048))
    (fp_line (start -3.556 1.016) (end -3.556 -1.016) (layer F.SilkS) (width 0.3048))
    (fp_line (start -3.556 -0.508) (end -3.048 -1.016) (layer F.SilkS) (width 0.3048))
    (pad 1 thru_hole circle (at -2.54 0 270) (size 2 2) (drill 0.8128)
      (layers *.Cu *.Mask F.SilkS)
      (net 8 VCC)
    )
    (pad 2 thru_hole circle (at 2.54 0 270) (size 2 2) (drill 0.8128)
      (layers *.Cu *.Mask F.SilkS)
      (net 1 GND)
    )
    (model discret/capa_2pas_5x5mm.wrl
      (at (xyz 0 0 0))
      (scale (xyz 1 1 1))
      (rotate (xyz 0 0 0))
    )
  )

  (module R5-Davoust (layer F.Cu) (tedit 524D81F0) (tstamp 529C376F)
    (at 116.967 53.1114 270)
    (descr "Resistance 5 pas")
    (tags R)
    (path /5299E92E)
    (autoplace_cost180 10)
    (fp_text reference R1 (at 0 0 270) (layer F.SilkS)
      (effects (font (size 1.397 1.27) (thickness 0.2032)))
    )
    (fp_text value 3.3k (at 0 0 270) (layer F.SilkS) hide
      (effects (font (size 1.397 1.27) (thickness 0.2032)))
    )
    (fp_line (start -6.35 0) (end -5.334 0) (layer F.SilkS) (width 0.3048))
    (fp_line (start 6.35 0) (end 5.334 0) (layer F.SilkS) (width 0.3048))
    (fp_line (start 5.334 -1.27) (end 5.334 1.27) (layer F.SilkS) (width 0.3048))
    (fp_line (start 5.334 1.27) (end -5.334 1.27) (layer F.SilkS) (width 0.3048))
    (fp_line (start -5.334 1.27) (end -5.334 -1.27) (layer F.SilkS) (width 0.3048))
    (fp_line (start -5.334 -1.27) (end 5.334 -1.27) (layer F.SilkS) (width 0.3048))
    (fp_line (start -5.334 -0.762) (end -4.826 -1.27) (layer F.SilkS) (width 0.3048))
    (pad 1 thru_hole circle (at -6.35 0 270) (size 2 2) (drill 0.8)
      (layers *.Cu *.Mask F.SilkS)
      (net 8 VCC)
    )
    (pad 2 thru_hole circle (at 6.35 0 270) (size 2 2) (drill 0.8)
      (layers *.Cu *.Mask F.SilkS)
      (net 7 N-000009)
    )
    (model discret/resistor.wrl
      (at (xyz 0 0 0))
      (scale (xyz 0.5 0.5 0.5))
      (rotate (xyz 0 0 0))
    )
  )

  (module R5-Davoust (layer F.Cu) (tedit 524D81F0) (tstamp 529B0E7C)
    (at 127.5588 60.6552 270)
    (descr "Resistance 5 pas")
    (tags R)
    (path /5299BE8D)
    (autoplace_cost180 10)
    (fp_text reference R2 (at 0 0 270) (layer F.SilkS)
      (effects (font (size 1.397 1.27) (thickness 0.2032)))
    )
    (fp_text value 200 (at 0 0 270) (layer F.SilkS) hide
      (effects (font (size 1.397 1.27) (thickness 0.2032)))
    )
    (fp_line (start -6.35 0) (end -5.334 0) (layer F.SilkS) (width 0.3048))
    (fp_line (start 6.35 0) (end 5.334 0) (layer F.SilkS) (width 0.3048))
    (fp_line (start 5.334 -1.27) (end 5.334 1.27) (layer F.SilkS) (width 0.3048))
    (fp_line (start 5.334 1.27) (end -5.334 1.27) (layer F.SilkS) (width 0.3048))
    (fp_line (start -5.334 1.27) (end -5.334 -1.27) (layer F.SilkS) (width 0.3048))
    (fp_line (start -5.334 -1.27) (end 5.334 -1.27) (layer F.SilkS) (width 0.3048))
    (fp_line (start -5.334 -0.762) (end -4.826 -1.27) (layer F.SilkS) (width 0.3048))
    (pad 1 thru_hole circle (at -6.35 0 270) (size 2 2) (drill 0.8)
      (layers *.Cu *.Mask F.SilkS)
      (net 8 VCC)
    )
    (pad 2 thru_hole circle (at 6.35 0 270) (size 2 2) (drill 0.8)
      (layers *.Cu *.Mask F.SilkS)
      (net 6 N-000008)
    )
    (model discret/resistor.wrl
      (at (xyz 0 0 0))
      (scale (xyz 0.5 0.5 0.5))
      (rotate (xyz 0 0 0))
    )
  )

  (gr_line (start 110.0582 42.9768) (end 110.0582 42.9006) (angle 90) (layer Edge.Cuts) (width 0.1))
  (gr_line (start 118.1481 42.9768) (end 110.0582 42.9768) (angle 90) (layer Edge.Cuts) (width 0.1))
  (gr_line (start 118.1481 72.9869) (end 118.1481 42.9768) (angle 90) (layer Edge.Cuts) (width 0.1))
  (gr_line (start 110.1471 72.9869) (end 118.1481 72.9869) (angle 90) (layer Edge.Cuts) (width 0.1))
  (gr_line (start 110.1471 43.0276) (end 110.1471 72.9869) (angle 90) (layer Edge.Cuts) (width 0.1))

  (segment (start 111.5314 46.9138) (end 111.5568 46.9138) (width 0.6) (layer B.Cu) (net 1))
  (segment (start 114.427 49.784) (end 114.427 51.9684) (width 0.6) (layer B.Cu) (net 1) (tstamp 529C377D))
  (segment (start 111.5568 46.9138) (end 114.427 49.784) (width 0.6) (layer B.Cu) (net 1) (tstamp 529C377C))
  (segment (start 111.5314 46.9138) (end 111.5314 48.93564) (width 0.6) (layer B.Cu) (net 1))
  (segment (start 111.5314 48.93564) (end 111.5695 48.97374) (width 0.6) (layer B.Cu) (net 1) (tstamp 529C36BF))
  (segment (start 112.21974 50.87366) (end 112.21974 51.48326) (width 0.254) (layer B.Cu) (net 3))
  (segment (start 111.41456 52.28844) (end 111.41456 52.54244) (width 0.254) (layer B.Cu) (net 3) (tstamp 529C3712))
  (segment (start 112.21974 51.48326) (end 111.41456 52.28844) (width 0.254) (layer B.Cu) (net 3) (tstamp 529C3711))
  (segment (start 111.5314 44.3738) (end 114.1222 44.3738) (width 0.6) (layer B.Cu) (net 4))
  (segment (start 114.1222 44.3738) (end 114.1476 44.3484) (width 0.6) (layer B.Cu) (net 4) (tstamp 529C368D))
  (segment (start 110.91926 50.87366) (end 110.91926 51.48834) (width 0.254) (layer B.Cu) (net 7))
  (segment (start 111.71936 54.44236) (end 112.0648 54.44236) (width 0.254) (layer B.Cu) (net 7) (tstamp 529C3719))
  (segment (start 110.617 53.34) (end 111.71936 54.44236) (width 0.254) (layer B.Cu) (net 7) (tstamp 529C3717))
  (segment (start 110.617 51.7906) (end 110.617 53.34) (width 0.254) (layer B.Cu) (net 7) (tstamp 529C3716))
  (segment (start 110.91926 51.48834) (end 110.617 51.7906) (width 0.254) (layer B.Cu) (net 7) (tstamp 529C3715))
  (segment (start 116.6876 44.3484) (end 116.6368 44.3484) (width 0.6) (layer B.Cu) (net 8))
  (segment (start 116.6368 44.3484) (end 114.0968 46.8884) (width 0.6) (layer B.Cu) (net 8) (tstamp 529C3693))
  (segment (start 116.6876 44.3484) (end 116.6876 46.736) (width 0.6) (layer B.Cu) (net 8))
  (segment (start 116.6876 46.736) (end 116.7638 46.8122) (width 0.6) (layer B.Cu) (net 8) (tstamp 529C3690))

)
