EESchema Schematic File Version 2
LIBS:VincentDavoust
LIBS:power
LIBS:device
LIBS:transistors
LIBS:conn
LIBS:linear
LIBS:regul
LIBS:74xx
LIBS:cmos4000
LIBS:adc-dac
LIBS:memory
LIBS:xilinx
LIBS:special
LIBS:microcontrollers
LIBS:dsp
LIBS:microchip
LIBS:analog_switches
LIBS:motorola
LIBS:texas
LIBS:intel
LIBS:audio
LIBS:interface
LIBS:digital-audio
LIBS:philips
LIBS:display
LIBS:cypress
LIBS:siliconi
LIBS:opto
LIBS:atmel
LIBS:contrib
LIBS:valves
LIBS:noise-res-cache
EELAYER 27 0
EELAYER END
$Descr A4 11693 8268
encoding utf-8
Sheet 1 1
Title ""
Date "19 jan 2016"
Rev ""
Comp ""
Comment1 ""
Comment2 ""
Comment3 ""
Comment4 ""
$EndDescr
$Comp
L R R-noise1
U 1 1 569DF843
P 2350 3200
F 0 "R-noise1" V 2430 3200 40  0000 C CNN
F 1 "R" V 2357 3201 40  0000 C CNN
F 2 "~" V 2280 3200 30  0000 C CNN
F 3 "~" H 2350 3200 30  0000 C CNN
	1    2350 3200
	1    0    0    -1  
$EndComp
Wire Wire Line
	2350 2950 2350 2800
$Comp
L NPN Q1
U 1 1 569DF889
P 3050 2800
F 0 "Q1" H 3050 2650 50  0000 R CNN
F 1 "NPN" H 3050 2950 50  0000 R CNN
F 2 "~" H 3050 2800 60  0000 C CNN
F 3 "~" H 3050 2800 60  0000 C CNN
	1    3050 2800
	1    0    0    -1  
$EndComp
$Comp
L NPN Q2
U 1 1 569DF89A
P 3350 3000
F 0 "Q2" H 3350 2850 50  0000 R CNN
F 1 "NPN" H 3350 3150 50  0000 R CNN
F 2 "~" H 3350 3000 60  0000 C CNN
F 3 "~" H 3350 3000 60  0000 C CNN
	1    3350 3000
	1    0    0    -1  
$EndComp
$Comp
L C C1
U 1 1 569DF8AE
P 2550 2800
F 0 "C1" H 2550 2900 40  0000 L CNN
F 1 "C" H 2556 2715 40  0000 L CNN
F 2 "~" H 2588 2650 30  0000 C CNN
F 3 "~" H 2550 2800 60  0000 C CNN
	1    2550 2800
	0    -1   -1   0   
$EndComp
Wire Wire Line
	2850 2800 2750 2800
$Comp
L R R2
U 1 1 569DF911
P 2800 3050
F 0 "R2" V 2880 3050 40  0000 C CNN
F 1 "R" V 2807 3051 40  0000 C CNN
F 2 "~" V 2730 3050 30  0000 C CNN
F 3 "~" H 2800 3050 30  0000 C CNN
	1    2800 3050
	1    0    0    -1  
$EndComp
$Comp
L R R1
U 1 1 569DF920
P 2800 2550
F 0 "R1" V 2880 2550 40  0000 C CNN
F 1 "R" V 2807 2551 40  0000 C CNN
F 2 "~" V 2730 2550 30  0000 C CNN
F 3 "~" H 2800 2550 30  0000 C CNN
	1    2800 2550
	1    0    0    -1  
$EndComp
$Comp
L GND #PWR1
U 1 1 569DF92F
P 2800 3700
F 0 "#PWR1" H 2800 3700 30  0001 C CNN
F 1 "GND" H 2800 3630 30  0001 C CNN
F 2 "" H 2800 3700 60  0000 C CNN
F 3 "" H 2800 3700 60  0000 C CNN
	1    2800 3700
	1    0    0    -1  
$EndComp
$Comp
L VCC #PWR2
U 1 1 569DF93E
P 3100 2100
F 0 "#PWR2" H 3100 2200 30  0001 C CNN
F 1 "VCC" H 3100 2200 30  0000 C CNN
F 2 "" H 3100 2100 60  0000 C CNN
F 3 "" H 3100 2100 60  0000 C CNN
	1    3100 2100
	1    0    0    -1  
$EndComp
$Comp
L R R4
U 1 1 569DF97F
P 3450 3450
F 0 "R4" V 3530 3450 40  0000 C CNN
F 1 "R" V 3457 3451 40  0000 C CNN
F 2 "~" V 3380 3450 30  0000 C CNN
F 3 "~" H 3450 3450 30  0000 C CNN
	1    3450 3450
	1    0    0    -1  
$EndComp
Wire Wire Line
	1300 3700 6950 3700
Wire Wire Line
	2350 3700 2350 3450
Wire Wire Line
	2800 3300 2800 3700
Connection ~ 2800 3700
$Comp
L C C2
U 1 1 569DF99A
P 3650 3500
F 0 "C2" H 3650 3600 40  0000 L CNN
F 1 "C" H 3656 3415 40  0000 L CNN
F 2 "~" H 3688 3350 30  0000 C CNN
F 3 "~" H 3650 3500 60  0000 C CNN
	1    3650 3500
	-1   0    0    1   
$EndComp
Connection ~ 3450 3700
Wire Wire Line
	3650 3300 3650 3200
Wire Wire Line
	3650 3200 3450 3200
Wire Wire Line
	3450 2600 3450 2800
$Comp
L R R3
U 1 1 569DF9D2
P 3450 2350
F 0 "R3" V 3530 2350 40  0000 C CNN
F 1 "R" V 3457 2351 40  0000 C CNN
F 2 "~" V 3380 2350 30  0000 C CNN
F 3 "~" H 3450 2350 30  0000 C CNN
	1    3450 2350
	1    0    0    -1  
$EndComp
Wire Wire Line
	2150 2100 5850 2100
Wire Wire Line
	2800 2100 2800 2300
Connection ~ 3450 2600
$Comp
L MAX2611 IC1
U 1 1 569DFA06
P 5150 3050
F 0 "IC1" H 5150 3050 60  0000 C CNN
F 1 "MAX2611" H 5150 3050 60  0000 C CNN
F 2 "~" H 5150 3050 60  0000 C CNN
F 3 "~" H 5150 3050 60  0000 C CNN
	1    5150 3050
	1    0    0    -1  
$EndComp
Wire Wire Line
	5600 2600 5600 2800
Wire Wire Line
	5600 2800 4650 2800
Wire Wire Line
	4650 2800 4650 3700
Connection ~ 3650 3700
Connection ~ 4650 2950
$Comp
L C C3
U 1 1 569DFA35
P 4000 2600
F 0 "C3" H 4000 2700 40  0000 L CNN
F 1 "C" H 4006 2515 40  0000 L CNN
F 2 "~" H 4038 2450 30  0000 C CNN
F 3 "~" H 4000 2600 60  0000 C CNN
	1    4000 2600
	0    1    1    0   
$EndComp
Wire Wire Line
	4650 2600 4200 2600
Wire Wire Line
	3150 2600 3800 2600
Wire Wire Line
	5600 2950 6200 2950
$Comp
L R R5
U 1 1 569DFA8F
P 5850 2700
F 0 "R5" V 5930 2700 40  0000 C CNN
F 1 "R" V 5857 2701 40  0000 C CNN
F 2 "~" V 5780 2700 30  0000 C CNN
F 3 "~" H 5850 2700 30  0000 C CNN
	1    5850 2700
	1    0    0    -1  
$EndComp
Wire Wire Line
	5850 2100 5850 2450
Connection ~ 3450 2100
$Comp
L C C4
U 1 1 569DFAB4
P 6400 2950
F 0 "C4" H 6400 3050 40  0000 L CNN
F 1 "C" H 6406 2865 40  0000 L CNN
F 2 "~" H 6438 2800 30  0000 C CNN
F 3 "~" H 6400 2950 60  0000 C CNN
	1    6400 2950
	0    -1   -1   0   
$EndComp
$Comp
L CONN_2 ANTENNE1
U 1 1 569DFAC3
P 7300 3050
F 0 "ANTENNE1" V 7550 3150 40  0000 C CNN
F 1 "CONN_2" H 7350 3050 40  0000 C CNN
F 2 "~" H 7300 3050 60  0000 C CNN
F 3 "~" H 7300 3050 60  0000 C CNN
	1    7300 3050
	1    0    0    1   
$EndComp
Wire Wire Line
	6600 2950 6950 2950
Wire Wire Line
	6950 3700 6950 3150
Connection ~ 4650 3700
$Comp
L CONN_2 ALIM1
U 1 1 569DFB1D
P 950 2850
F 0 "ALIM1" V 1200 2950 40  0000 C CNN
F 1 "CONN_2" H 1000 2850 40  0000 C CNN
F 2 "~" H 950 2850 60  0000 C CNN
F 3 "~" H 950 2850 60  0000 C CNN
	1    950  2850
	-1   0    0    1   
$EndComp
Wire Wire Line
	1300 2950 1300 3700
Connection ~ 2350 3700
Wire Wire Line
	1300 2750 1300 2100
Wire Wire Line
	1300 2100 1950 2100
Connection ~ 2800 2100
$Comp
L CONN_2 SWITCH1
U 1 1 569DFD23
P 2050 1750
F 0 "SWITCH1" V 2300 1850 40  0000 C CNN
F 1 "CONN_2" H 2100 1750 40  0000 C CNN
F 2 "~" H 2050 1750 60  0000 C CNN
F 3 "~" H 2050 1750 60  0000 C CNN
	1    2050 1750
	0    -1   -1   0   
$EndComp
Connection ~ 5850 2950
Connection ~ 5850 2450
Connection ~ 5600 2950
Connection ~ 6200 2950
Connection ~ 6600 2950
$EndSCHEMATC
