EESchema Schematic File Version 2  date Sun Dec  1 11:34:22 2013
LIBS:VincentDavoust
LIBS:MAX
LIBS:power
LIBS:device
LIBS:transistors
LIBS:conn
LIBS:linear
LIBS:regul
LIBS:74xx
LIBS:cmos4000
LIBS:adc-dac
LIBS:memory
LIBS:xilinx
LIBS:special
LIBS:microcontrollers
LIBS:dsp
LIBS:microchip
LIBS:analog_switches
LIBS:motorola
LIBS:texas
LIBS:intel
LIBS:audio
LIBS:interface
LIBS:digital-audio
LIBS:philips
LIBS:display
LIBS:cypress
LIBS:siliconi
LIBS:opto
LIBS:atmel
LIBS:contrib
LIBS:valves
EELAYER 27 0
EELAYER END
$Descr A4 11693 8268
encoding utf-8
Sheet 1 1
Title ""
Date "1 dec 2013"
Rev ""
Comp ""
Comment1 ""
Comment2 ""
Comment3 ""
Comment4 ""
$EndDescr
$Comp
L C C2
U 1 1 5299BE60
P 5800 2400
F 0 "C2" H 5800 2500 40  0000 L CNN
F 1 "0.1u" H 5806 2315 40  0000 L CNN
F 2 "~" H 5838 2250 30  0000 C CNN
F 3 "~" H 5800 2400 60  0000 C CNN
	1    5800 2400
	0    1    1    0   
$EndComp
Wire Wire Line
	4800 2600 4950 2600
Wire Wire Line
	4500 2400 5600 2400
$Comp
L R R2
U 1 1 5299BE8D
P 7200 2500
F 0 "R2" V 7280 2500 40  0000 C CNN
F 1 "200" V 7207 2501 40  0000 C CNN
F 2 "~" V 7130 2500 30  0000 C CNN
F 3 "~" H 7200 2500 30  0000 C CNN
	1    7200 2500
	1    0    0    -1  
$EndComp
$Comp
L GND #PWR01
U 1 1 5299BE9C
P 5250 2800
F 0 "#PWR01" H 5250 2800 30  0001 C CNN
F 1 "GND" H 5250 2730 30  0001 C CNN
F 2 "" H 5250 2800 60  0000 C CNN
F 3 "" H 5250 2800 60  0000 C CNN
	1    5250 2800
	1    0    0    -1  
$EndComp
$Comp
L VCC #PWR02
U 1 1 5299BEAB
P 7200 2250
F 0 "#PWR02" H 7200 2350 30  0001 C CNN
F 1 "VCC" H 7200 2350 30  0000 C CNN
F 2 "" H 7200 2250 60  0000 C CNN
F 3 "" H 7200 2250 60  0000 C CNN
	1    7200 2250
	1    0    0    -1  
$EndComp
$Comp
L GND #PWR03
U 1 1 5299E8EA
P 6000 2800
F 0 "#PWR03" H 6000 2800 30  0001 C CNN
F 1 "GND" H 6000 2730 30  0001 C CNN
F 2 "" H 6000 2800 60  0000 C CNN
F 3 "" H 6000 2800 60  0000 C CNN
	1    6000 2800
	1    0    0    -1  
$EndComp
$Comp
L GND #PWR04
U 1 1 5299E8F9
P 6950 2450
F 0 "#PWR04" H 6950 2450 30  0001 C CNN
F 1 "GND" H 6950 2380 30  0001 C CNN
F 2 "" H 6950 2450 60  0000 C CNN
F 3 "" H 6950 2450 60  0000 C CNN
	1    6950 2450
	1    0    0    -1  
$EndComp
Wire Wire Line
	6950 2400 6950 2450
Wire Wire Line
	6000 2750 6000 2800
$Comp
L C C3
U 1 1 5299E911
P 7400 2750
F 0 "C3" H 7400 2850 40  0000 L CNN
F 1 "4.7n" H 7406 2665 40  0000 L CNN
F 2 "~" H 7438 2600 30  0000 C CNN
F 3 "~" H 7400 2750 60  0000 C CNN
	1    7400 2750
	0    1    1    0   
$EndComp
Wire Wire Line
	6950 2750 7200 2750
$Comp
L R R1
U 1 1 5299E92E
P 4900 2150
F 0 "R1" V 4980 2150 40  0000 C CNN
F 1 "3.3k" V 4907 2151 40  0000 C CNN
F 2 "~" V 4830 2150 30  0000 C CNN
F 3 "~" H 4900 2150 30  0000 C CNN
	1    4900 2150
	1    0    0    -1  
$EndComp
$Comp
L VCC #PWR05
U 1 1 5299E934
P 4900 1900
F 0 "#PWR05" H 4900 2000 30  0001 C CNN
F 1 "VCC" H 4900 2000 30  0000 C CNN
F 2 "" H 4900 1900 60  0000 C CNN
F 3 "" H 4900 1900 60  0000 C CNN
	1    4900 1900
	1    0    0    -1  
$EndComp
$Comp
L CONN_2 P2
U 1 1 5299E990
P 8200 2850
F 0 "P2" V 8150 2850 40  0000 C CNN
F 1 "Ant" V 8250 2850 40  0000 C CNN
F 2 "~" H 8200 2850 60  0000 C CNN
F 3 "~" H 8200 2850 60  0000 C CNN
	1    8200 2850
	1    0    0    -1  
$EndComp
$Comp
L CONN_2 P1
U 1 1 5299E99D
P 3550 1500
F 0 "P1" V 3500 1500 40  0000 C CNN
F 1 "Alim" V 3600 1500 40  0000 C CNN
F 2 "~" H 3550 1500 60  0000 C CNN
F 3 "~" H 3550 1500 60  0000 C CNN
	1    3550 1500
	-1   0    0    -1  
$EndComp
Wire Wire Line
	7600 2750 7850 2750
$Comp
L GND #PWR06
U 1 1 5299E9B5
P 7850 3000
F 0 "#PWR06" H 7850 3000 30  0001 C CNN
F 1 "GND" H 7850 2930 30  0001 C CNN
F 2 "" H 7850 3000 60  0000 C CNN
F 3 "" H 7850 3000 60  0000 C CNN
	1    7850 3000
	1    0    0    -1  
$EndComp
$Comp
L GND #PWR07
U 1 1 5299E9C4
P 3950 1650
F 0 "#PWR07" H 3950 1650 30  0001 C CNN
F 1 "GND" H 3950 1580 30  0001 C CNN
F 2 "" H 3950 1650 60  0000 C CNN
F 3 "" H 3950 1650 60  0000 C CNN
	1    3950 1650
	1    0    0    -1  
$EndComp
$Comp
L VCC #PWR08
U 1 1 5299E9D3
P 4950 1300
F 0 "#PWR08" H 4950 1400 30  0001 C CNN
F 1 "VCC" H 4950 1400 30  0000 C CNN
F 2 "" H 4950 1300 60  0000 C CNN
F 3 "" H 4950 1300 60  0000 C CNN
	1    4950 1300
	1    0    0    -1  
$EndComp
Wire Wire Line
	3900 1600 3950 1600
Wire Wire Line
	3950 1600 3950 1650
Wire Wire Line
	7850 2950 7850 3000
$Comp
L SWITCH_INV SW1
U 1 1 5299E9F7
P 4450 1400
F 0 "SW1" H 4250 1550 50  0000 C CNN
F 1 "SWITCH_INV" H 4300 1250 50  0000 C CNN
F 2 "~" H 4450 1400 60  0000 C CNN
F 3 "~" H 4450 1400 60  0000 C CNN
	1    4450 1400
	1    0    0    -1  
$EndComp
Wire Wire Line
	3950 1400 3900 1400
$Comp
L C C1
U 1 1 5299EB08
P 5900 1400
F 0 "C1" H 5900 1500 40  0000 L CNN
F 1 "22n" H 5906 1315 40  0000 L CNN
F 2 "~" H 5938 1250 30  0000 C CNN
F 3 "~" H 5900 1400 60  0000 C CNN
	1    5900 1400
	1    0    0    -1  
$EndComp
$Comp
L VCC #PWR09
U 1 1 5299EB10
P 5900 1200
F 0 "#PWR09" H 5900 1300 30  0001 C CNN
F 1 "VCC" H 5900 1300 30  0000 C CNN
F 2 "" H 5900 1200 60  0000 C CNN
F 3 "" H 5900 1200 60  0000 C CNN
	1    5900 1200
	1    0    0    -1  
$EndComp
$Comp
L GND #PWR010
U 1 1 5299EB1F
P 5900 1600
F 0 "#PWR010" H 5900 1600 30  0001 C CNN
F 1 "GND" H 5900 1530 30  0001 C CNN
F 2 "" H 5900 1600 60  0000 C CNN
F 3 "" H 5900 1600 60  0000 C CNN
	1    5900 1600
	1    0    0    -1  
$EndComp
$Comp
L NPN Q2
U 1 1 529B0FC1
P 5150 2600
F 0 "Q2" H 5350 2500 50  0000 C CNN
F 1 "NPN" H 5400 2750 50  0000 C CNN
F 2 "" H 5550 2600 30  0001 C CNN
F 3 "~" H 5150 2600 60  0000 C CNN
	1    5150 2600
	1    0    0    1   
$EndComp
$Comp
L NPN Q1
U 1 1 529B0FCE
P 4600 2600
F 0 "Q1" H 4800 2500 50  0000 C CNN
F 1 "NPN" H 4850 2750 50  0000 C CNN
F 2 "" H 5000 2600 30  0001 C CNN
F 3 "~" H 4600 2600 60  0000 C CNN
	1    4600 2600
	-1   0    0    -1  
$EndComp
Connection ~ 5250 2400
Connection ~ 4500 2400
Connection ~ 4900 2400
Connection ~ 4950 2600
Connection ~ 4800 2600
Connection ~ 4950 1300
Connection ~ 3900 1600
Connection ~ 6000 2400
$Comp
L MAX2611 IC1
U 1 1 529B12A7
P 6500 2850
F 0 "IC1" H 6500 2850 60  0000 C CNN
F 1 "MAX2611" H 6500 2850 60  0000 C CNN
F 2 "~" H 6500 2850 60  0000 C CNN
F 3 "~" H 6500 2850 60  0000 C CNN
	1    6500 2850
	1    0    0    -1  
$EndComp
Connection ~ 6950 2750
Connection ~ 5250 2800
$EndSCHEMATC
